{
  "from" : "dragan.planinic@gmail.com",
  "to" : "planinic.dragan@nsoft.com",
  "cc": "",
  "bcc" : "planinic.dragan@yahoo.com,notanemail",
  "subject": "Test SendGrid",
  "body": "Here comes the content of the email."
}